module codeberg.org/Tanzanite/Tanzanite

go 1.22.1

require github.com/gookit/goutil v0.6.15

require (
	github.com/gookit/color v1.5.4 // indirect
	github.com/xo/terminfo v0.0.0-20220910002029-abceb7e1c41e // indirect
	golang.org/x/sys v0.15.0 // indirect
	golang.org/x/text v0.14.0 // indirect
)
